black==24.1.1
bokeh==3.3.4
flake8==3.8.4
ipywidgets==8.1.2
isort==5.13.2
jedi==0.17.2
jupyter-bokeh==3.0.7
jupyter-lsp==2.2.2
jupyterlab==4.1.0
jupyterlab_code_formatter==2.2.1
jupyterlab_git==0.50.0
jupyterlab-lsp==5.0.3
jupyterlab_widgets==3.0.10
nbconvert==7.2.1
nbdime==4.0.1
nbformat==5.7.0
param==2.0.2
pipx==1.4.3
pkgutil_resolve_name==1.3.10
pycodestyle==2.6.0
pydocstyle==6.3.0
pyflakes==2.2.0
pylint==3.0.3
python-language-server==0.36.2
pyviz-comms==2.3.2
